{
  "entrypoint": "index.html",
  "shell": "src/page-app.html",
  "fragments": [
    "src/page-welcome.html",
    "src/page-showcase.html",
    "src/page-search.html",
    "src/page-404.html"
  ],
  "sources": [
    "src/**/*",
    "images/**/*"
  ],
  "extraDependencies": [
    "manifest.json",
    "bower_components/webcomponentsjs/*.js"
  ],
  "lint": {
    "rules": ["polymer-2"]
  },
  "builds": [
    {
      "preset": "es5-bundled"
    },
    {
      "preset": "es6-bundled"
    },
    {
      "preset": "es6-unbundled"
    }
  ]
}
